{
    "page": 1,
    "per_page": 15,
    "photos": [
        {
            "id": 3751006,
            "width": 5399,
            "height": 8701,
            "url": "https://www.pexels.com/photo/the-denver-post-office-and-federal-court-house-3751006/",
            "photographer": "Colin Lloyd",
            "photographer_url": "https://www.pexels.com/@colin-lloyd-2120291",
            "photographer_id": 2120291,
            "src": {
                "original": "https://images.pexels.com/photos/3751006/pexels-photo-3751006.jpeg",
                "large2x": "https://images.pexels.com/photos/3751006/pexels-photo-3751006.jpeg?auto=compress&cs=tinysrgb&dpr=2&h=650&w=940",
                "large": "https://images.pexels.com/photos/3751006/pexels-photo-3751006.jpeg?auto=compress&cs=tinysrgb&h=650&w=940",
                "medium": "https://images.pexels.com/photos/3751006/pexels-photo-3751006.jpeg?auto=compress&cs=tinysrgb&h=350",
                "small": "https://images.pexels.com/photos/3751006/pexels-photo-3751006.jpeg?auto=compress&cs=tinysrgb&h=130",
                "portrait": "https://images.pexels.com/photos/3751006/pexels-photo-3751006.jpeg?auto=compress&cs=tinysrgb&fit=crop&h=1200&w=800",
                "landscape": "https://images.pexels.com/photos/3751006/pexels-photo-3751006.jpeg?auto=compress&cs=tinysrgb&fit=crop&h=627&w=1200",
                "tiny": "https://images.pexels.com/photos/3751006/pexels-photo-3751006.jpeg?auto=compress&cs=tinysrgb&dpr=1&fit=crop&h=200&w=280"
            },
            "liked": false
        },
        {
            "id": 3751009,
            "width": 3322,
            "height": 4983,
            "url": "https://www.pexels.com/photo/brown-concrete-building-during-night-time-3751009/",
            "photographer": "Colin Lloyd",
            "photographer_url": "https://www.pexels.com/@colin-lloyd-2120291",
            "photographer_id": 2120291,
            "src": {
                "original": "https://images.pexels.com/photos/3751009/pexels-photo-3751009.jpeg",
                "large2x": "https://images.pexels.com/photos/3751009/pexels-photo-3751009.jpeg?auto=compress&cs=tinysrgb&dpr=2&h=650&w=940",
                "large": "https://images.pexels.com/photos/3751009/pexels-photo-3751009.jpeg?auto=compress&cs=tinysrgb&h=650&w=940",
                "medium": "https://images.pexels.com/photos/3751009/pexels-photo-3751009.jpeg?auto=compress&cs=tinysrgb&h=350",
                "small": "https://images.pexels.com/photos/3751009/pexels-photo-3751009.jpeg?auto=compress&cs=tinysrgb&h=130",
                "portrait": "https://images.pexels.com/photos/3751009/pexels-photo-3751009.jpeg?auto=compress&cs=tinysrgb&fit=crop&h=1200&w=800",
                "landscape": "https://images.pexels.com/photos/3751009/pexels-photo-3751009.jpeg?auto=compress&cs=tinysrgb&fit=crop&h=627&w=1200",
                "tiny": "https://images.pexels.com/photos/3751009/pexels-photo-3751009.jpeg?auto=compress&cs=tinysrgb&dpr=1&fit=crop&h=200&w=280"
            },
            "liked": false
        },
        {
            "id": 3751010,
            "width": 3712,
            "height": 5568,
            "url": "https://www.pexels.com/photo/red-and-white-concrete-building-during-night-time-3751010/",
            "photographer": "Colin Lloyd",
            "photographer_url": "https://www.pexels.com/@colin-lloyd-2120291",
            "photographer_id": 2120291,
            "src": {
                "original": "https://images.pexels.com/photos/3751010/pexels-photo-3751010.jpeg",
                "large2x": "https://images.pexels.com/photos/3751010/pexels-photo-3751010.jpeg?auto=compress&cs=tinysrgb&dpr=2&h=650&w=940",
                "large": "https://images.pexels.com/photos/3751010/pexels-photo-3751010.jpeg?auto=compress&cs=tinysrgb&h=650&w=940",
                "medium": "https://images.pexels.com/photos/3751010/pexels-photo-3751010.jpeg?auto=compress&cs=tinysrgb&h=350",
                "small": "https://images.pexels.com/photos/3751010/pexels-photo-3751010.jpeg?auto=compress&cs=tinysrgb&h=130",
                "portrait": "https://images.pexels.com/photos/3751010/pexels-photo-3751010.jpeg?auto=compress&cs=tinysrgb&fit=crop&h=1200&w=800",
                "landscape": "https://images.pexels.com/photos/3751010/pexels-photo-3751010.jpeg?auto=compress&cs=tinysrgb&fit=crop&h=627&w=1200",
                "tiny": "https://images.pexels.com/photos/3751010/pexels-photo-3751010.jpeg?auto=compress&cs=tinysrgb&dpr=1&fit=crop&h=200&w=280"
            },
            "liked": false
        },
        {
            "id": 2500159,
            "width": 3448,
            "height": 4592,
            "url": "https://www.pexels.com/photo/photo-of-man-in-hoodie-sitting-on-concrete-slab-in-view-of-high-rise-building-under-sky-2500159/",
            "photographer": "Aidan Roof",
            "photographer_url": "https://www.pexels.com/@aidan-roof-1271136",
            "photographer_id": 1271136,
            "src": {
                "original": "https://images.pexels.com/photos/2500159/pexels-photo-2500159.png",
                "large2x": "https://images.pexels.com/photos/2500159/pexels-photo-2500159.png?auto=compress&cs=tinysrgb&dpr=2&h=650&w=940",
                "large": "https://images.pexels.com/photos/2500159/pexels-photo-2500159.png?auto=compress&cs=tinysrgb&h=650&w=940",
                "medium": "https://images.pexels.com/photos/2500159/pexels-photo-2500159.png?auto=compress&cs=tinysrgb&h=350",
                "small": "https://images.pexels.com/photos/2500159/pexels-photo-2500159.png?auto=compress&cs=tinysrgb&h=130",
                "portrait": "https://images.pexels.com/photos/2500159/pexels-photo-2500159.png?auto=compress&cs=tinysrgb&fit=crop&h=1200&w=800",
                "landscape": "https://images.pexels.com/photos/2500159/pexels-photo-2500159.png?auto=compress&cs=tinysrgb&fit=crop&h=627&w=1200",
                "tiny": "https://images.pexels.com/photos/2500159/pexels-photo-2500159.png?auto=compress&cs=tinysrgb&dpr=1&fit=crop&h=200&w=280"
            },
            "liked": false
        },
        {
            "id": 3751008,
            "width": 3712,
            "height": 5568,
            "url": "https://www.pexels.com/photo/people-walking-on-street-3751008/",
            "photographer": "Colin Lloyd",
            "photographer_url": "https://www.pexels.com/@colin-lloyd-2120291",
            "photographer_id": 2120291,
            "src": {
                "original": "https://images.pexels.com/photos/3751008/pexels-photo-3751008.jpeg",
                "large2x": "https://images.pexels.com/photos/3751008/pexels-photo-3751008.jpeg?auto=compress&cs=tinysrgb&dpr=2&h=650&w=940",
                "large": "https://images.pexels.com/photos/3751008/pexels-photo-3751008.jpeg?auto=compress&cs=tinysrgb&h=650&w=940",
                "medium": "https://images.pexels.com/photos/3751008/pexels-photo-3751008.jpeg?auto=compress&cs=tinysrgb&h=350",
                "small": "https://images.pexels.com/photos/3751008/pexels-photo-3751008.jpeg?auto=compress&cs=tinysrgb&h=130",
                "portrait": "https://images.pexels.com/photos/3751008/pexels-photo-3751008.jpeg?auto=compress&cs=tinysrgb&fit=crop&h=1200&w=800",
                "landscape": "https://images.pexels.com/photos/3751008/pexels-photo-3751008.jpeg?auto=compress&cs=tinysrgb&fit=crop&h=627&w=1200",
                "tiny": "https://images.pexels.com/photos/3751008/pexels-photo-3751008.jpeg?auto=compress&cs=tinysrgb&dpr=1&fit=crop&h=200&w=280"
            },
            "liked": false
        },
        {
            "id": 5627275,
            "width": 4160,
            "height": 6240,
            "url": "https://www.pexels.com/photo/old-brooklyn-bridge-under-white-sky-at-sunset-5627275/",
            "photographer": "Bryant's Juarez",
            "photographer_url": "https://www.pexels.com/@bryant-s-juarez-3130904",
            "photographer_id": 3130904,
            "src": {
                "original": "https://images.pexels.com/photos/5627275/pexels-photo-5627275.jpeg",
                "large2x": "https://images.pexels.com/photos/5627275/pexels-photo-5627275.jpeg?auto=compress&cs=tinysrgb&dpr=2&h=650&w=940",
                "large": "https://images.pexels.com/photos/5627275/pexels-photo-5627275.jpeg?auto=compress&cs=tinysrgb&h=650&w=940",
                "medium": "https://images.pexels.com/photos/5627275/pexels-photo-5627275.jpeg?auto=compress&cs=tinysrgb&h=350",
                "small": "https://images.pexels.com/photos/5627275/pexels-photo-5627275.jpeg?auto=compress&cs=tinysrgb&h=130",
                "portrait": "https://images.pexels.com/photos/5627275/pexels-photo-5627275.jpeg?auto=compress&cs=tinysrgb&fit=crop&h=1200&w=800",
                "landscape": "https://images.pexels.com/photos/5627275/pexels-photo-5627275.jpeg?auto=compress&cs=tinysrgb&fit=crop&h=627&w=1200",
                "tiny": "https://images.pexels.com/photos/5627275/pexels-photo-5627275.jpeg?auto=compress&cs=tinysrgb&dpr=1&fit=crop&h=200&w=280"
            },
            "liked": false
        },
        {
            "id": 5603829,
            "width": 4000,
            "height": 6000,
            "url": "https://www.pexels.com/photo/picturesque-sunset-sky-over-city-5603829/",
            "photographer": "Artem Saranin",
            "photographer_url": "https://www.pexels.com/@arts",
            "photographer_id": 359504,
            "src": {
                "original": "https://images.pexels.com/photos/5603829/pexels-photo-5603829.jpeg",
                "large2x": "https://images.pexels.com/photos/5603829/pexels-photo-5603829.jpeg?auto=compress&cs=tinysrgb&dpr=2&h=650&w=940",
                "large": "https://images.pexels.com/photos/5603829/pexels-photo-5603829.jpeg?auto=compress&cs=tinysrgb&h=650&w=940",
                "medium": "https://images.pexels.com/photos/5603829/pexels-photo-5603829.jpeg?auto=compress&cs=tinysrgb&h=350",
                "small": "https://images.pexels.com/photos/5603829/pexels-photo-5603829.jpeg?auto=compress&cs=tinysrgb&h=130",
                "portrait": "https://images.pexels.com/photos/5603829/pexels-photo-5603829.jpeg?auto=compress&cs=tinysrgb&fit=crop&h=1200&w=800",
                "landscape": "https://images.pexels.com/photos/5603829/pexels-photo-5603829.jpeg?auto=compress&cs=tinysrgb&fit=crop&h=627&w=1200",
                "tiny": "https://images.pexels.com/photos/5603829/pexels-photo-5603829.jpeg?auto=compress&cs=tinysrgb&dpr=1&fit=crop&h=200&w=280"
            },
            "liked": false
        },
        {
            "id": 5137445,
            "width": 5024,
            "height": 5078,
            "url": "https://www.pexels.com/photo/lonely-brick-church-in-aged-city-5137445/",
            "photographer": "Alex Kozlov",
            "photographer_url": "https://www.pexels.com/@alex-kozlov-3442124",
            "photographer_id": 3442124,
            "src": {
                "original": "https://images.pexels.com/photos/5137445/pexels-photo-5137445.jpeg",
                "large2x": "https://images.pexels.com/photos/5137445/pexels-photo-5137445.jpeg?auto=compress&cs=tinysrgb&dpr=2&h=650&w=940",
                "large": "https://images.pexels.com/photos/5137445/pexels-photo-5137445.jpeg?auto=compress&cs=tinysrgb&h=650&w=940",
                "medium": "https://images.pexels.com/photos/5137445/pexels-photo-5137445.jpeg?auto=compress&cs=tinysrgb&h=350",
                "small": "https://images.pexels.com/photos/5137445/pexels-photo-5137445.jpeg?auto=compress&cs=tinysrgb&h=130",
                "portrait": "https://images.pexels.com/photos/5137445/pexels-photo-5137445.jpeg?auto=compress&cs=tinysrgb&fit=crop&h=1200&w=800",
                "landscape": "https://images.pexels.com/photos/5137445/pexels-photo-5137445.jpeg?auto=compress&cs=tinysrgb&fit=crop&h=627&w=1200",
                "tiny": "https://images.pexels.com/photos/5137445/pexels-photo-5137445.jpeg?auto=compress&cs=tinysrgb&dpr=1&fit=crop&h=200&w=280"
            },
            "liked": false
        },
        {
            "id": 2269617,
            "width": 4000,
            "height": 6000,
            "url": "https://www.pexels.com/photo/concrete-buildings-2269617/",
            "photographer": "Spencer Selover",
            "photographer_url": "https://www.pexels.com/@spencer-selover-142259",
            "photographer_id": 142259,
            "src": {
                "original": "https://images.pexels.com/photos/2269617/pexels-photo-2269617.jpeg",
                "large2x": "https://images.pexels.com/photos/2269617/pexels-photo-2269617.jpeg?auto=compress&cs=tinysrgb&dpr=2&h=650&w=940",
                "large": "https://images.pexels.com/photos/2269617/pexels-photo-2269617.jpeg?auto=compress&cs=tinysrgb&h=650&w=940",
                "medium": "https://images.pexels.com/photos/2269617/pexels-photo-2269617.jpeg?auto=compress&cs=tinysrgb&h=350",
                "small": "https://images.pexels.com/photos/2269617/pexels-photo-2269617.jpeg?auto=compress&cs=tinysrgb&h=130",
                "portrait": "https://images.pexels.com/photos/2269617/pexels-photo-2269617.jpeg?auto=compress&cs=tinysrgb&fit=crop&h=1200&w=800",
                "landscape": "https://images.pexels.com/photos/2269617/pexels-photo-2269617.jpeg?auto=compress&cs=tinysrgb&fit=crop&h=627&w=1200",
                "tiny": "https://images.pexels.com/photos/2269617/pexels-photo-2269617.jpeg?auto=compress&cs=tinysrgb&dpr=1&fit=crop&h=200&w=280"
            },
            "liked": false
        },
        {
            "id": 5603830,
            "width": 3935,
            "height": 5902,
            "url": "https://www.pexels.com/photo/crop-person-with-glass-ball-in-hand-5603830/",
            "photographer": "Artem Saranin",
            "photographer_url": "https://www.pexels.com/@arts",
            "photographer_id": 359504,
            "src": {
                "original": "https://images.pexels.com/photos/5603830/pexels-photo-5603830.jpeg",
                "large2x": "https://images.pexels.com/photos/5603830/pexels-photo-5603830.jpeg?auto=compress&cs=tinysrgb&dpr=2&h=650&w=940",
                "large": "https://images.pexels.com/photos/5603830/pexels-photo-5603830.jpeg?auto=compress&cs=tinysrgb&h=650&w=940",
                "medium": "https://images.pexels.com/photos/5603830/pexels-photo-5603830.jpeg?auto=compress&cs=tinysrgb&h=350",
                "small": "https://images.pexels.com/photos/5603830/pexels-photo-5603830.jpeg?auto=compress&cs=tinysrgb&h=130",
                "portrait": "https://images.pexels.com/photos/5603830/pexels-photo-5603830.jpeg?auto=compress&cs=tinysrgb&fit=crop&h=1200&w=800",
                "landscape": "https://images.pexels.com/photos/5603830/pexels-photo-5603830.jpeg?auto=compress&cs=tinysrgb&fit=crop&h=627&w=1200",
                "tiny": "https://images.pexels.com/photos/5603830/pexels-photo-5603830.jpeg?auto=compress&cs=tinysrgb&dpr=1&fit=crop&h=200&w=280"
            },
            "liked": false
        },
        {
            "id": 2422861,
            "width": 3448,
            "height": 4592,
            "url": "https://www.pexels.com/photo/curtain-wall-high-rise-building-beside-transmission-tower-2422861/",
            "photographer": "Aidan Roof",
            "photographer_url": "https://www.pexels.com/@aidan-roof-1271136",
            "photographer_id": 1271136,
            "src": {
                "original": "https://images.pexels.com/photos/2422861/pexels-photo-2422861.png",
                "large2x": "https://images.pexels.com/photos/2422861/pexels-photo-2422861.png?auto=compress&cs=tinysrgb&dpr=2&h=650&w=940",
                "large": "https://images.pexels.com/photos/2422861/pexels-photo-2422861.png?auto=compress&cs=tinysrgb&h=650&w=940",
                "medium": "https://images.pexels.com/photos/2422861/pexels-photo-2422861.png?auto=compress&cs=tinysrgb&h=350",
                "small": "https://images.pexels.com/photos/2422861/pexels-photo-2422861.png?auto=compress&cs=tinysrgb&h=130",
                "portrait": "https://images.pexels.com/photos/2422861/pexels-photo-2422861.png?auto=compress&cs=tinysrgb&fit=crop&h=1200&w=800",
                "landscape": "https://images.pexels.com/photos/2422861/pexels-photo-2422861.png?auto=compress&cs=tinysrgb&fit=crop&h=627&w=1200",
                "tiny": "https://images.pexels.com/photos/2422861/pexels-photo-2422861.png?auto=compress&cs=tinysrgb&dpr=1&fit=crop&h=200&w=280"
            },
            "liked": false
        },
        {
            "id": 5650644,
            "width": 4496,
            "height": 3000,
            "url": "https://www.pexels.com/photo/colorful-carousel-placed-in-amusement-park-5650644/",
            "photographer": "Tim Gouw",
            "photographer_url": "https://www.pexels.com/@punttim",
            "photographer_id": 8202,
            "src": {
                "original": "https://images.pexels.com/photos/5650644/pexels-photo-5650644.jpeg",
                "large2x": "https://images.pexels.com/photos/5650644/pexels-photo-5650644.jpeg?auto=compress&cs=tinysrgb&dpr=2&h=650&w=940",
                "large": "https://images.pexels.com/photos/5650644/pexels-photo-5650644.jpeg?auto=compress&cs=tinysrgb&h=650&w=940",
                "medium": "https://images.pexels.com/photos/5650644/pexels-photo-5650644.jpeg?auto=compress&cs=tinysrgb&h=350",
                "small": "https://images.pexels.com/photos/5650644/pexels-photo-5650644.jpeg?auto=compress&cs=tinysrgb&h=130",
                "portrait": "https://images.pexels.com/photos/5650644/pexels-photo-5650644.jpeg?auto=compress&cs=tinysrgb&fit=crop&h=1200&w=800",
                "landscape": "https://images.pexels.com/photos/5650644/pexels-photo-5650644.jpeg?auto=compress&cs=tinysrgb&fit=crop&h=627&w=1200",
                "tiny": "https://images.pexels.com/photos/5650644/pexels-photo-5650644.jpeg?auto=compress&cs=tinysrgb&dpr=1&fit=crop&h=200&w=280"
            },
            "liked": false
        },
        {
            "id": 5650642,
            "width": 4496,
            "height": 3000,
            "url": "https://www.pexels.com/photo/ferris-wheel-against-blue-sky-5650642/",
            "photographer": "Tim Gouw",
            "photographer_url": "https://www.pexels.com/@punttim",
            "photographer_id": 8202,
            "src": {
                "original": "https://images.pexels.com/photos/5650642/pexels-photo-5650642.jpeg",
                "large2x": "https://images.pexels.com/photos/5650642/pexels-photo-5650642.jpeg?auto=compress&cs=tinysrgb&dpr=2&h=650&w=940",
                "large": "https://images.pexels.com/photos/5650642/pexels-photo-5650642.jpeg?auto=compress&cs=tinysrgb&h=650&w=940",
                "medium": "https://images.pexels.com/photos/5650642/pexels-photo-5650642.jpeg?auto=compress&cs=tinysrgb&h=350",
                "small": "https://images.pexels.com/photos/5650642/pexels-photo-5650642.jpeg?auto=compress&cs=tinysrgb&h=130",
                "portrait": "https://images.pexels.com/photos/5650642/pexels-photo-5650642.jpeg?auto=compress&cs=tinysrgb&fit=crop&h=1200&w=800",
                "landscape": "https://images.pexels.com/photos/5650642/pexels-photo-5650642.jpeg?auto=compress&cs=tinysrgb&fit=crop&h=627&w=1200",
                "tiny": "https://images.pexels.com/photos/5650642/pexels-photo-5650642.jpeg?auto=compress&cs=tinysrgb&dpr=1&fit=crop&h=200&w=280"
            },
            "liked": false
        },
        {
            "id": 5597858,
            "width": 3832,
            "height": 5749,
            "url": "https://www.pexels.com/photo/stylish-black-man-sitting-on-street-5597858/",
            "photographer": "Amusan",
            "photographer_url": "https://www.pexels.com/@picturesbyamusan",
            "photographer_id": 3367119,
            "src": {
                "original": "https://images.pexels.com/photos/5597858/pexels-photo-5597858.jpeg",
                "large2x": "https://images.pexels.com/photos/5597858/pexels-photo-5597858.jpeg?auto=compress&cs=tinysrgb&dpr=2&h=650&w=940",
                "large": "https://images.pexels.com/photos/5597858/pexels-photo-5597858.jpeg?auto=compress&cs=tinysrgb&h=650&w=940",
                "medium": "https://images.pexels.com/photos/5597858/pexels-photo-5597858.jpeg?auto=compress&cs=tinysrgb&h=350",
                "small": "https://images.pexels.com/photos/5597858/pexels-photo-5597858.jpeg?auto=compress&cs=tinysrgb&h=130",
                "portrait": "https://images.pexels.com/photos/5597858/pexels-photo-5597858.jpeg?auto=compress&cs=tinysrgb&fit=crop&h=1200&w=800",
                "landscape": "https://images.pexels.com/photos/5597858/pexels-photo-5597858.jpeg?auto=compress&cs=tinysrgb&fit=crop&h=627&w=1200",
                "tiny": "https://images.pexels.com/photos/5597858/pexels-photo-5597858.jpeg?auto=compress&cs=tinysrgb&dpr=1&fit=crop&h=200&w=280"
            },
            "liked": false
        },
        {
            "id": 3184423,
            "width": 4004,
            "height": 6000,
            "url": "https://www.pexels.com/photo/photo-of-people-holding-each-other-s-hands-3184423/",
            "photographer": "fauxels",
            "photographer_url": "https://www.pexels.com/@fauxels",
            "photographer_id": 1281351,
            "src": {
                "original": "https://images.pexels.com/photos/3184423/pexels-photo-3184423.jpeg",
                "large2x": "https://images.pexels.com/photos/3184423/pexels-photo-3184423.jpeg?auto=compress&cs=tinysrgb&dpr=2&h=650&w=940",
                "large": "https://images.pexels.com/photos/3184423/pexels-photo-3184423.jpeg?auto=compress&cs=tinysrgb&h=650&w=940",
                "medium": "https://images.pexels.com/photos/3184423/pexels-photo-3184423.jpeg?auto=compress&cs=tinysrgb&h=350",
                "small": "https://images.pexels.com/photos/3184423/pexels-photo-3184423.jpeg?auto=compress&cs=tinysrgb&h=130",
                "portrait": "https://images.pexels.com/photos/3184423/pexels-photo-3184423.jpeg?auto=compress&cs=tinysrgb&fit=crop&h=1200&w=800",
                "landscape": "https://images.pexels.com/photos/3184423/pexels-photo-3184423.jpeg?auto=compress&cs=tinysrgb&fit=crop&h=627&w=1200",
                "tiny": "https://images.pexels.com/photos/3184423/pexels-photo-3184423.jpeg?auto=compress&cs=tinysrgb&dpr=1&fit=crop&h=200&w=280"
            },
            "liked": false
        }
    ],
    "total_results": 10000,
    "next_page": "https://api.pexels.com/v1/search/?page=2&per_page=15&query=%22city+of+denver%2Cco%22"
}
